\relax 
\providecommand\hyper@newdestlabel[2]{}
\providecommand\HyperFirstAtBeginDocument{\AtBeginDocument}
\HyperFirstAtBeginDocument{\ifx\hyper@anchor\@undefined
\global\let\oldcontentsline\contentsline
\gdef\contentsline#1#2#3#4{\oldcontentsline{#1}{#2}{#3}}
\global\let\oldnewlabel\newlabel
\gdef\newlabel#1#2{\newlabelxx{#1}#2}
\gdef\newlabelxx#1#2#3#4#5#6{\oldnewlabel{#1}{{#2}{#3}}}
\AtEndDocument{\ifx\hyper@anchor\@undefined
\let\contentsline\oldcontentsline
\let\newlabel\oldnewlabel
\fi}
\fi}
\global\let\hyper@last\relax 
\gdef\HyperFirstAtBeginDocument#1{#1}
\providecommand\HyField@AuxAddToFields[1]{}
\providecommand\HyField@AuxAddToCoFields[2]{}
\providecommand\pbs@newkey[2]{}
\providecommand\pbs@seq@push@cx[2]{}
\providecommand\pbs@at@end@dvi@check{}
\pbs@at@end@dvi@check
\providecommand\mix@newkey[2]{}
\pbs@newkey{pbs@last@page}{1}
\providecommand \oddpage@label [2]{}
\babel@aux{english}{}
\pgfsyspdfmark {pgfid1}{14328721}{15917947}
\@writefile{lof}{\contentsline {figure}{\numberline {\oldstylenums  {1}}{\ignorespaces \oldstylenums  {Structure of 2-Bromo-1-p-tolylethanol}\relax }}{1}{figure.caption.2}}
\citation{chemhelper}
\pbs@newkey{pbs@last@page}{2}
\@writefile{toc}{\contentsline {section}{\numberline { \oldstylenums  {1} }Introduction}{2}{section.1}}
\@writefile{toc}{\contentsline {subsection}{\numberline { \oldstylenums  { \oldstylenums  {1} .1} }Reaction}{2}{subsection.1.1}}
\pgfsyspdfmark {pgfid3}{7486612}{35660232}
\pgfsyspdfmark {pgfid4}{21170830}{34605970}
\pgfsyspdfmark {pgfid2}{7473505}{35660232}
\@writefile{lof}{\contentsline {figure}{\numberline {\oldstylenums  {2}}{\ignorespaces \oldstylenums  {Reaction Scheme}\relax }}{2}{figure.caption.3}}
\@writefile{toc}{\contentsline {subsection}{\numberline { \oldstylenums  { \oldstylenums  {1} .2} }Reaction Mechanism}{2}{subsection.1.2}}
\pgfsyspdfmark {pgfid6}{7099357}{23598719}
\pgfsyspdfmark {pgfid7}{15328699}{20561004}
\pgfsyspdfmark {pgfid8}{22114793}{23038599}
\pgfsyspdfmark {pgfid11}{29484152}{24489729}
\pgfsyspdfmark {pgfid9}{28032475}{23521871}
\pgfsyspdfmark {pgfid5}{6735960}{23598719}
\pgfsyspdfmark {pgfid16}{31686216}{23598719}
\pgfsyspdfmark {pgfid17}{31870241}{23598719}
\pgfsyspdfmark {pgfid18}{32054266}{23598719}
\pgfsyspdfmark {pgfid19}{32238291}{23598719}
\pgfsyspdfmark {pgfid20}{32422316}{23598719}
\@writefile{lof}{\contentsline {figure}{\numberline {\oldstylenums  {3}}{\ignorespaces \oldstylenums  {This reaction type needs an electrophile and a nucleophile. In this case, NBS reacts as a electrophile and water as a nucleophile. (To is an abbreviation for {\normalfont  <<}tolyl{\normalfont  >>})}\relax }}{2}{figure.caption.4}}
\pgfsyspdfmark {pgfid22}{11794362}{10856054}
\pgfsyspdfmark {pgfid23}{21145530}{9986117}
\pgfsyspdfmark {pgfid21}{7498805}{13034852}
\pgfsyspdfmark {pgfid24}{31659471}{13034852}
\@writefile{lof}{\contentsline {figure}{\numberline {\oldstylenums  {4}}{\ignorespaces \oldstylenums  {The OH\textsubscript  {2} group reacts as a br\o nsted acid, leaving a hydroxy group and resulting in the desired product.}\relax }}{2}{figure.caption.5}}
\pbs@newkey{pbs@last@page}{3}
\@writefile{toc}{\contentsline {subsection}{\numberline { \oldstylenums  { \oldstylenums  {1} .3} }Preparation}{3}{subsection.1.3}}
\@writefile{toc}{\contentsline {subsubsection}{\numberline { \oldstylenums  { \oldstylenums  { \oldstylenums  {1} .3} .1} }Hazards}{3}{subsubsection.1.3.1}}
\@writefile{toc}{\contentsline {subsubsection}{\numberline { \oldstylenums  { \oldstylenums  { \oldstylenums  {1} .3} .2} }Waste}{3}{subsubsection.1.3.2}}
\citation{ups}
\citation{ups}
\citation{ups}
\pbs@newkey{pbs@last@page}{4}
\@writefile{toc}{\contentsline {section}{\numberline { \oldstylenums  {2} }Procedure}{4}{section.2}}
\@writefile{toc}{\contentsline {section}{\numberline { \oldstylenums  {3} }Characterization}{4}{section.3}}
\@writefile{toc}{\contentsline {subsection}{\numberline { \oldstylenums  { \oldstylenums  {3} .1} }Thin Layer Chromatography}{4}{subsection.3.1}}
\@writefile{toc}{\contentsline {subsection}{\numberline { \oldstylenums  { \oldstylenums  {3} .2} }Infrared Spectroscopy}{4}{subsection.3.2}}
\@writefile{lof}{\contentsline {figure}{\numberline {\oldstylenums  {5}}{\ignorespaces \oldstylenums  {IR spectrum of the synthesized product. }\relax }}{4}{figure.caption.8}}
\pgfsyspdfmark {pgfid25}{27021017}{7610046}
\pgfsyspdfmark {pgfid26}{27278049}{6659775}
\pgfsyspdfmark {pgfid27}{27021017}{5709504}
\pbs@newkey{pbs@last@page}{5}
\@writefile{toc}{\contentsline {section}{\numberline { \oldstylenums  {4} }Appendix}{5}{section.4}}
\@writefile{toc}{\contentsline {subsection}{\numberline { \oldstylenums  { \oldstylenums  {4} .1} }H Statements}{5}{subsection.4.1}}
\@writefile{toc}{\contentsline {subsection}{\numberline { \oldstylenums  { \oldstylenums  {4} .2} }P Statements}{5}{subsection.4.2}}
\pbs@newkey{pbs@last@page}{6}
\pbs@newkey{pbs@last@page}{7}
\bibstyle{unsrt}
\bibdata{literature}
\bibcite{chemhelper}{1}
\bibcite{ups}{2}
\pbs@newkey{pbs@last@page}{8}
\newlabel{LastPage}{{}{8}{}{page.8}{}}
\xdef\lastpage@lastpage{8}
\xdef\lastpage@lastpageHy{8}
\ttl@finishall
