\relax 
\providecommand\hyper@newdestlabel[2]{}
\providecommand\HyperFirstAtBeginDocument{\AtBeginDocument}
\HyperFirstAtBeginDocument{\ifx\hyper@anchor\@undefined
\global\let\oldcontentsline\contentsline
\gdef\contentsline#1#2#3#4{\oldcontentsline{#1}{#2}{#3}}
\global\let\oldnewlabel\newlabel
\gdef\newlabel#1#2{\newlabelxx{#1}#2}
\gdef\newlabelxx#1#2#3#4#5#6{\oldnewlabel{#1}{{#2}{#3}}}
\AtEndDocument{\ifx\hyper@anchor\@undefined
\let\contentsline\oldcontentsline
\let\newlabel\oldnewlabel
\fi}
\fi}
\global\let\hyper@last\relax 
\gdef\HyperFirstAtBeginDocument#1{#1}
\providecommand\HyField@AuxAddToFields[1]{}
\providecommand\HyField@AuxAddToCoFields[2]{}
\providecommand\pbs@newkey[2]{}
\providecommand\pbs@seq@push@cx[2]{}
\providecommand\pbs@at@end@dvi@check{}
\pbs@at@end@dvi@check
\providecommand\mix@newkey[2]{}
\pbs@newkey{pbs@last@page}{1}
\providecommand \oddpage@label [2]{}
\babel@aux{english}{}
\pgfsyspdfmark {pgfid1}{10333346}{15808344}
\@writefile{lof}{\contentsline {figure}{\numberline {\oldstylenums  {1}}{\ignorespaces \oldstylenums  {Structure of 1-nitro-4-(3-phenylpropoxyl)benzene}\relax }}{1}{figure.caption.2}}
\citation{lecture}
\citation{epa-product}
\pbs@newkey{pbs@last@page}{2}
\@writefile{toc}{\contentsline {section}{\numberline { \oldstylenums  {1} }Introduction}{2}{section.1}}
\@writefile{toc}{\contentsline {subsection}{\numberline { \oldstylenums  { \oldstylenums  {1} .1} }Reaction}{2}{subsection.1.1}}
\pgfsyspdfmark {pgfid3}{6988282}{30369164}
\pgfsyspdfmark {pgfid4}{14799076}{40217948}
\pgfsyspdfmark {pgfid5}{21953914}{29442213}
\pgfsyspdfmark {pgfid2}{5272495}{30369164}
\@writefile{lof}{\contentsline {figure}{\numberline {\oldstylenums  {2}}{\ignorespaces \oldstylenums  {Reaction: 4-fluoronitrobenzene reacts with 3-phenylpropanol via a nuclephilic aromatic substitution.}\relax }}{2}{figure.caption.3}}
\citation{lecture}
\pbs@newkey{pbs@last@page}{3}
\@writefile{toc}{\contentsline {subsection}{\numberline { \oldstylenums  { \oldstylenums  {1} .2} }Reaction Mechanism}{3}{subsection.1.2}}
\pgfsyspdfmark {pgfid7}{11542523}{41503619}
\pgfsyspdfmark {pgfid12}{16054050}{41503619}
\pgfsyspdfmark {pgfid8}{16302431}{41503619}
\pgfsyspdfmark {pgfid13}{23378418}{38473425}
\pgfsyspdfmark {pgfid18}{25933316}{43461207}
\pgfsyspdfmark {pgfid14}{26234519}{41118951}
\pgfsyspdfmark {pgfid6}{11203047}{41503619}
\pgfsyspdfmark {pgfid19}{27403155}{41503619}
\pgfsyspdfmark {pgfid20}{27587180}{41503619}
\pgfsyspdfmark {pgfid21}{27771205}{41503619}
\pgfsyspdfmark {pgfid22}{27955230}{41503619}
\@writefile{lof}{\contentsline {figure}{\numberline {\oldstylenums  {3}}{\ignorespaces \oldstylenums  {The nucleophilic alkoxide anion of 3-phenylpropanol reacts with the aromatic ring, resulting in a flouride ion acting as a leaving group.}\relax }}{3}{figure.caption.4}}
\pgfsyspdfmark {pgfid25}{12287124}{25889787}
\pgfsyspdfmark {pgfid26}{21612294}{25875151}
\pgfsyspdfmark {pgfid24}{9989051}{25889787}
\pgfsyspdfmark {pgfid27}{31870479}{25198528}
\pgfsyspdfmark {pgfid23}{5387986}{29316811}
\pgfsyspdfmark {pgfid28}{33586266}{29316811}
\pgfsyspdfmark {pgfid29}{33770291}{29316811}
\@writefile{lof}{\contentsline {figure}{\numberline {\oldstylenums  {4}}{\ignorespaces \oldstylenums  {The negative charge in the aromatic ring can be stabilized by the nitro compound using the right resonance structure. This is how this functional group favours the nucleophilic aromatic substitution.}\relax }}{3}{figure.caption.5}}
\pbs@newkey{pbs@last@page}{4}
\@writefile{toc}{\contentsline {subsection}{\numberline { \oldstylenums  { \oldstylenums  {1} .3} }Preparation}{4}{subsection.1.3}}
\@writefile{toc}{\contentsline {subsubsection}{\numberline { \oldstylenums  { \oldstylenums  { \oldstylenums  {1} .3} .1} }Hazards}{4}{subsubsection.1.3.1}}
\citation{reaxys-product}
\pbs@newkey{pbs@last@page}{5}
\@writefile{toc}{\contentsline {subsubsection}{\numberline { \oldstylenums  { \oldstylenums  { \oldstylenums  {1} .3} .2} }Waste}{5}{subsubsection.1.3.2}}
\@writefile{toc}{\contentsline {section}{\numberline { \oldstylenums  {2} }Procedure}{5}{section.2}}
\@writefile{toc}{\contentsline {section}{\numberline { \oldstylenums  {3} }Characterization}{5}{section.3}}
\@writefile{toc}{\contentsline {subsection}{\numberline { \oldstylenums  { \oldstylenums  {3} .1} }Thin Layer Chromatography}{5}{subsection.3.1}}
\citation{ups}
\citation{ups}
\citation{ups}
\pbs@newkey{pbs@last@page}{6}
\@writefile{toc}{\contentsline {subsection}{\numberline { \oldstylenums  { \oldstylenums  {3} .2} }Melting Point}{6}{subsection.3.2}}
\@writefile{toc}{\contentsline {subsection}{\numberline { \oldstylenums  { \oldstylenums  {3} .3} }Infrared Spectroscopy}{6}{subsection.3.3}}
\@writefile{lof}{\contentsline {figure}{\numberline {\oldstylenums  {5}}{\ignorespaces \oldstylenums  {Measured IR spectrum.}\relax }}{6}{figure.caption.10}}
\pgfsyspdfmark {pgfid30}{27296923}{21276930}
\pgfsyspdfmark {pgfid31}{27296923}{20326659}
\pbs@newkey{pbs@last@page}{7}
\@writefile{toc}{\contentsline {section}{\numberline { \oldstylenums  {4} }Appendix}{7}{section.4}}
\@writefile{toc}{\contentsline {subsection}{\numberline { \oldstylenums  { \oldstylenums  {4} .1} }H Statements}{7}{subsection.4.1}}
\pbs@newkey{pbs@last@page}{8}
\@writefile{toc}{\contentsline {subsection}{\numberline { \oldstylenums  { \oldstylenums  {4} .2} }P Statements}{8}{subsection.4.2}}
\pbs@newkey{pbs@last@page}{9}
\pbs@newkey{pbs@last@page}{10}
\bibstyle{unsrt}
\bibdata{literature}
\bibcite{lecture}{1}
\bibcite{epa-product}{2}
\bibcite{reaxys-product}{3}
\bibcite{ups}{4}
\pbs@newkey{pbs@last@page}{11}
\newlabel{LastPage}{{}{11}{}{page.11}{}}
\xdef\lastpage@lastpage{11}
\xdef\lastpage@lastpageHy{11}
\ttl@finishall
