\relax 
\providecommand\hyper@newdestlabel[2]{}
\providecommand\HyperFirstAtBeginDocument{\AtBeginDocument}
\HyperFirstAtBeginDocument{\ifx\hyper@anchor\@undefined
\global\let\oldcontentsline\contentsline
\gdef\contentsline#1#2#3#4{\oldcontentsline{#1}{#2}{#3}}
\global\let\oldnewlabel\newlabel
\gdef\newlabel#1#2{\newlabelxx{#1}#2}
\gdef\newlabelxx#1#2#3#4#5#6{\oldnewlabel{#1}{{#2}{#3}}}
\AtEndDocument{\ifx\hyper@anchor\@undefined
\let\contentsline\oldcontentsline
\let\newlabel\oldnewlabel
\fi}
\fi}
\global\let\hyper@last\relax 
\gdef\HyperFirstAtBeginDocument#1{#1}
\providecommand\HyField@AuxAddToFields[1]{}
\providecommand\HyField@AuxAddToCoFields[2]{}
\providecommand\pbs@newkey[2]{}
\providecommand\pbs@seq@push@cx[2]{}
\providecommand\pbs@at@end@dvi@check{}
\pbs@at@end@dvi@check
\providecommand\mix@newkey[2]{}
\pbs@newkey{pbs@last@page}{1}
\providecommand \oddpage@label [2]{}
\babel@aux{english}{}
\pgfsyspdfmark {pgfid1}{14471098}{18462529}
\@writefile{lof}{\contentsline {figure}{\numberline {\oldstylenums  {1}}{\ignorespaces Structure of Propyl Acetate\relax }}{1}{figure.caption.2}}
\citation{wikipedia}
\pbs@newkey{pbs@last@page}{2}
\@writefile{toc}{\contentsline {section}{\numberline { \oldstylenums  {1} }Introduction}{2}{section.1}}
\@writefile{toc}{\contentsline {subsection}{\numberline { \oldstylenums  { \oldstylenums  {1} .1} }Reaction}{2}{subsection.1.1}}
\pgfsyspdfmark {pgfid3}{5259461}{37847643}
\pgfsyspdfmark {pgfid4}{15190859}{37847643}
\pgfsyspdfmark {pgfid5}{20851913}{37847643}
\pgfsyspdfmark {pgfid2}{5246354}{37847643}
\@writefile{toc}{\contentsline {subsection}{\numberline { \oldstylenums  { \oldstylenums  {1} .2} }Reaction Mechanism}{2}{subsection.1.2}}
\pgfsyspdfmark {pgfid7}{7832848}{31335848}
\pgfsyspdfmark {pgfid9}{16753499}{31376472}
\pgfsyspdfmark {pgfid10}{24196531}{31376472}
\pgfsyspdfmark {pgfid11}{31391182}{31376472}
\pgfsyspdfmark {pgfid8}{14303054}{31376472}
\pgfsyspdfmark {pgfid6}{5382403}{31335848}
\newlabel{eq:mech1}{{\computerFont   \oldstylenums  {1} |\ \oldstylenums  {2}}{2}{Reaction Mechanism}{equation.1.2}{}}
\pgfsyspdfmark {pgfid15}{15048456}{21352349}
\pgfsyspdfmark {pgfid13}{11894099}{21556821}
\pgfsyspdfmark {pgfid20}{21872352}{21556821}
\pgfsyspdfmark {pgfid22}{30969567}{23318429}
\pgfsyspdfmark {pgfid24}{29266887}{20369309}
\pgfsyspdfmark {pgfid41}{31952607}{19649669}
\pgfsyspdfmark {pgfid21}{31220570}{21556821}
\pgfsyspdfmark {pgfid12}{6246152}{21065301}
\pgfsyspdfmark {pgfid42}{33472774}{21065301}
\newlabel{eq:mech2}{{\computerFont   \oldstylenums  {1} |\ \oldstylenums  {3}}{2}{Reaction Mechanism}{equation.1.3}{}}
\pgfsyspdfmark {pgfid45}{16885555}{12515738}
\pgfsyspdfmark {pgfid46}{15182875}{9566618}
\pgfsyspdfmark {pgfid52}{17868595}{8846978}
\pgfsyspdfmark {pgfid44}{17136558}{10754130}
\pgfsyspdfmark {pgfid71}{27452087}{10813058}
\pgfsyspdfmark {pgfid76}{25749407}{7863938}
\pgfsyspdfmark {pgfid69}{27703090}{9051450}
\pgfsyspdfmark {pgfid43}{9504126}{10034490}
\pgfsyspdfmark {pgfid81}{29654150}{10034490}
\pgfsyspdfmark {pgfid82}{29654150}{10034490}
\newlabel{eq:mech3}{{\computerFont   \oldstylenums  {1} |\ \oldstylenums  {4}}{2}{Reaction Mechanism}{equation.1.4}{}}
\pbs@newkey{pbs@last@page}{3}
\pgfsyspdfmark {pgfid83}{5006425}{49694433}
\pgfsyspdfmark {pgfid85}{17288518}{43649393}
\pgfsyspdfmark {pgfid84}{13343251}{44140913}
\newlabel{eq:mech4}{{\computerFont   \oldstylenums  {1} |\ \oldstylenums  {5}}{3}{Reaction Mechanism}{equation.1.5}{}}
\@writefile{toc}{\contentsline {subsection}{\numberline { \oldstylenums  { \oldstylenums  {1} .3} }Preparation}{3}{subsection.1.3}}
\@writefile{toc}{\contentsline {subsubsection}{\numberline { \oldstylenums  { \oldstylenums  { \oldstylenums  {1} .3} .1} }Dangers}{3}{subsubsection.1.3.1}}
\@writefile{lof}{\contentsline {figure}{\numberline {\oldstylenums  {2}}{\ignorespaces Dangers of used Substances\relax }}{3}{figure.caption.3}}
\@writefile{toc}{\contentsline {subsubsection}{\numberline { \oldstylenums  { \oldstylenums  { \oldstylenums  {1} .3} .2} }Waste}{3}{subsubsection.1.3.2}}
\pbs@newkey{pbs@last@page}{4}
\@writefile{toc}{\contentsline {section}{\numberline { \oldstylenums  {2} }Procedure}{4}{section.2}}
\pbs@newkey{pbs@last@page}{5}
\@writefile{toc}{\contentsline {section}{\numberline { \oldstylenums  {3} }Results}{5}{section.3}}
\newlabel{eq:yield}{{\computerFont   \oldstylenums  {3} |\ \oldstylenums  {6}}{5}{Results}{equation.3.6}{}}
\@writefile{toc}{\contentsline {subsection}{\numberline { \oldstylenums  { \oldstylenums  {3} .1} }Characterization}{5}{subsection.3.1}}
\@writefile{toc}{\contentsline {subsubsection}{\numberline { \oldstylenums  { \oldstylenums  { \oldstylenums  {3} .1} .1} }Infrared Spectroscopy}{5}{subsubsection.3.1.1}}
\@writefile{lof}{\contentsline {figure}{\numberline {\oldstylenums  {3}}{\ignorespaces List of all major minima of the frequencies plot. Note: \oldstylenums  {100} \% in the depth value means no vibration at all. The lower the value, the stronger the wave.\relax }}{5}{figure.caption.4}}
\providecommand*\caption@xref[2]{\@setref\relax\@undefined{#1}}
\newlabel{tab:IR}{{\oldstylenums  {3}}{5}{List of all major minima of the frequencies plot. Note: \oldstylenums {100} \% in the depth value means no vibration at all. The lower the value, the stronger the wave.\relax }{figure.caption.4}{}}
\citation{ups}
\citation{ups}
\citation{ups}
\pbs@newkey{pbs@last@page}{6}
\@writefile{toc}{\contentsline {section}{\numberline { \oldstylenums  {4} }Discussion}{6}{section.4}}
\pgfsyspdfmark {pgfid86}{7164356}{42166600}
\pgfsyspdfmark {pgfid87}{21218410}{42166600}
\pgfsyspdfmark {pgfid88}{13413279}{40266056}
\pgfsyspdfmark {pgfid89}{24153730}{40266056}
\pgfsyspdfmark {pgfid90}{27784271}{37218632}
\pbs@newkey{pbs@last@page}{7}
\@writefile{toc}{\contentsline {section}{\numberline { \oldstylenums  {5} }Appendix}{7}{section.5}}
\newlabel{sec:appendix}{{ \oldstylenums  {5} }{7}{Appendix}{section.5}{}}
\@writefile{toc}{\contentsline {subsection}{\numberline { \oldstylenums  { \oldstylenums  {5} .1} }IR}{7}{subsection.5.1}}
\@writefile{lof}{\contentsline {figure}{\numberline {\oldstylenums  {4}}{\ignorespaces Graph showing the IR measurment of all frequencies and making the peaks visible. With this graph, the depth of all peaks are way better imaginable and allow a more convincing interpretation of the ester group (the two lowest peaks).\relax }}{7}{figure.caption.5}}
\newlabel{fig:IR_graph}{{\oldstylenums  {4}}{7}{Graph showing the IR measurment of all frequencies and making the peaks visible. With this graph, the depth of all peaks are way better imaginable and allow a more convincing interpretation of the ester group (the two lowest peaks).\relax }{figure.caption.5}{}}
\@writefile{toc}{\contentsline {subsection}{\numberline { \oldstylenums  { \oldstylenums  {5} .2} }H Statements}{7}{subsection.5.2}}
\pbs@newkey{pbs@last@page}{8}
\@writefile{toc}{\contentsline {subsection}{\numberline { \oldstylenums  { \oldstylenums  {5} .3} }P Statements}{8}{subsection.5.3}}
\pbs@newkey{pbs@last@page}{9}
\bibstyle{unsrt}
\bibdata{literature}
\bibcite{wikipedia}{1}
\bibcite{ups}{2}
\pbs@newkey{pbs@last@page}{10}
\newlabel{LastPage}{{}{10}{}{page.10}{}}
\xdef\lastpage@lastpage{10}
\xdef\lastpage@lastpageHy{10}
\ttl@finishall
