\relax 
\providecommand\hyper@newdestlabel[2]{}
\providecommand\HyperFirstAtBeginDocument{\AtBeginDocument}
\HyperFirstAtBeginDocument{\ifx\hyper@anchor\@undefined
\global\let\oldcontentsline\contentsline
\gdef\contentsline#1#2#3#4{\oldcontentsline{#1}{#2}{#3}}
\global\let\oldnewlabel\newlabel
\gdef\newlabel#1#2{\newlabelxx{#1}#2}
\gdef\newlabelxx#1#2#3#4#5#6{\oldnewlabel{#1}{{#2}{#3}}}
\AtEndDocument{\ifx\hyper@anchor\@undefined
\let\contentsline\oldcontentsline
\let\newlabel\oldnewlabel
\fi}
\fi}
\global\let\hyper@last\relax 
\gdef\HyperFirstAtBeginDocument#1{#1}
\providecommand\HyField@AuxAddToFields[1]{}
\providecommand\HyField@AuxAddToCoFields[2]{}
\providecommand\pbs@newkey[2]{}
\providecommand\pbs@seq@push@cx[2]{}
\providecommand\pbs@at@end@dvi@check{}
\pbs@at@end@dvi@check
\providecommand\mix@newkey[2]{}
\pbs@newkey{pbs@last@page}{1}
\providecommand \oddpage@label [2]{}
\babel@aux{english}{}
\pgfsyspdfmark {pgfid1}{11406274}{14926151}
\@writefile{lof}{\contentsline {figure}{\numberline {\oldstylenums  {1}}{\ignorespaces Structure of (E)-Chalkone\relax }}{1}{figure.caption.2}}
\citation{pubchemChalkone}
\citation{reactionMech}
\pbs@newkey{pbs@last@page}{2}
\@writefile{toc}{\contentsline {section}{\numberline { \oldstylenums  {1} }Introduction}{2}{section.1}}
\@writefile{toc}{\contentsline {subsection}{\numberline { \oldstylenums  { \oldstylenums  {1} .1} }Reaction}{2}{subsection.1.1}}
\pgfsyspdfmark {pgfid3}{5507445}{35160403}
\pgfsyspdfmark {pgfid4}{11380650}{35160403}
\pgfsyspdfmark {pgfid5}{22753679}{35160403}
\pgfsyspdfmark {pgfid2}{5494338}{35160403}
\@writefile{toc}{\contentsline {subsection}{\numberline { \oldstylenums  { \oldstylenums  {1} .2} }Reaction Mechanism}{2}{subsection.1.2}}
\pgfsyspdfmark {pgfid9}{7592828}{20589521}
\pgfsyspdfmark {pgfid7}{6141151}{17607305}
\pgfsyspdfmark {pgfid12}{18306578}{21053514}
\pgfsyspdfmark {pgfid10}{16854901}{18071298}
\pgfsyspdfmark {pgfid17}{27075992}{20621960}
\pgfsyspdfmark {pgfid19}{31063442}{20573465}
\pgfsyspdfmark {pgfid13}{25624315}{17639744}
\pgfsyspdfmark {pgfid6}{5801675}{17607305}
\pgfsyspdfmark {pgfid20}{33356601}{17607305}
\pgfsyspdfmark {pgfid21}{33356601}{17607305}
\pgfsyspdfmark {pgfid22}{33356601}{17607305}
\pgfsyspdfmark {pgfid23}{33356601}{17607305}
\pgfsyspdfmark {pgfid24}{33356601}{17607305}
\newlabel{eq:mech1}{{\computerFont   \oldstylenums  {1} |\ \oldstylenums  {2}}{2}{Reaction Mechanism}{equation.1.2}{}}
\pgfsyspdfmark {pgfid30}{15198135}{10963532}
\pgfsyspdfmark {pgfid26}{10341098}{7981316}
\pgfsyspdfmark {pgfid31}{18876069}{7981316}
\pgfsyspdfmark {pgfid32}{24048824}{8445309}
\pgfsyspdfmark {pgfid25}{6069462}{9680828}
\pgfsyspdfmark {pgfid33}{31352374}{9680828}
\newlabel{eq:mech2}{{\computerFont   \oldstylenums  {1} |\ \oldstylenums  {3}}{2}{Reaction Mechanism}{equation.1.3}{}}
\pbs@newkey{pbs@last@page}{3}
\pgfsyspdfmark {pgfid35}{11536343}{42428785}
\pgfsyspdfmark {pgfid36}{22958175}{41462129}
\pgfsyspdfmark {pgfid34}{7264707}{43161641}
\pgfsyspdfmark {pgfid37}{30108371}{43161641}
\pgfsyspdfmark {pgfid38}{30108371}{43161641}
\newlabel{eq:mech3}{{\computerFont   \oldstylenums  {1} |\ \oldstylenums  {4}}{3}{Reaction Mechanism}{equation.1.4}{}}
\@writefile{toc}{\contentsline {subsection}{\numberline { \oldstylenums  { \oldstylenums  {1} .3} }Preparation}{3}{subsection.1.3}}
\@writefile{toc}{\contentsline {subsubsection}{\numberline { \oldstylenums  { \oldstylenums  { \oldstylenums  {1} .3} .1} }Hazards}{3}{subsubsection.1.3.1}}
\@writefile{lof}{\contentsline {figure}{\numberline {\oldstylenums  {2}}{\ignorespaces Table showing potential dangers of compunds of the experiment\relax }}{3}{figure.caption.3}}
\providecommand*\caption@xref[2]{\@setref\relax\@undefined{#1}}
\newlabel{tab:hazards}{{\oldstylenums  {2}}{3}{Table showing potential dangers of compunds of the experiment\relax }{figure.caption.3}{}}
\@writefile{toc}{\contentsline {subsubsection}{\numberline { \oldstylenums  { \oldstylenums  { \oldstylenums  {1} .3} .2} }Waste}{3}{subsubsection.1.3.2}}
\pbs@newkey{pbs@last@page}{4}
\@writefile{toc}{\contentsline {section}{\numberline { \oldstylenums  {2} }Procedure}{4}{section.2}}
\citation{ups}
\citation{pubchemChalkone}
\pbs@newkey{pbs@last@page}{5}
\@writefile{toc}{\contentsline {section}{\numberline { \oldstylenums  {3} }Results}{5}{section.3}}
\newlabel{sec:results}{{ \oldstylenums  {3} }{5}{Results}{section.3}{}}
\@writefile{toc}{\contentsline {subsection}{\numberline { \oldstylenums  { \oldstylenums  {3} .1} }Infrared Spectroscopy}{5}{subsection.3.1}}
\pgfsyspdfmark {pgfid39}{25370614}{36445832}
\pgfsyspdfmark {pgfid40}{25370614}{35495561}
\pgfsyspdfmark {pgfid41}{25370614}{34545290}
\pgfsyspdfmark {pgfid42}{25370614}{33595019}
\@writefile{toc}{\contentsline {subsection}{\numberline { \oldstylenums  { \oldstylenums  {3} .2} }Melting Point}{5}{subsection.3.2}}
\@writefile{toc}{\contentsline {section}{\numberline { \oldstylenums  {4} }Discussion}{5}{section.4}}
\newlabel{sec:discussion}{{ \oldstylenums  {4} }{5}{Discussion}{section.4}{}}
\pbs@newkey{pbs@last@page}{6}
\@writefile{toc}{\contentsline {section}{\numberline { \oldstylenums  {5} }Appendix}{6}{section.5}}
\newlabel{sec:appendix}{{ \oldstylenums  {5} }{6}{Appendix}{section.5}{}}
\@writefile{lof}{\contentsline {figure}{\numberline {\oldstylenums  {3}}{\ignorespaces Scan of the IR result of Asbj\o rn\relax }}{6}{figure.caption.5}}
\newlabel{fig:IR}{{\oldstylenums  {3}}{6}{Scan of the IR result of Asbj\o rn\relax }{figure.caption.5}{}}
\@writefile{toc}{\contentsline {subsection}{\numberline { \oldstylenums  { \oldstylenums  {5} .1} }H Statements}{6}{subsection.5.1}}
\pbs@newkey{pbs@last@page}{7}
\@writefile{toc}{\contentsline {subsection}{\numberline { \oldstylenums  { \oldstylenums  {5} .2} }P Statements}{7}{subsection.5.2}}
\bibstyle{unsrt}
\bibdata{literature}
\bibcite{reactionMech}{1}
\bibcite{ups}{2}
\bibcite{pubchemChalkone}{3}
\pbs@newkey{pbs@last@page}{8}
\newlabel{LastPage}{{}{8}{}{page.8}{}}
\xdef\lastpage@lastpage{8}
\xdef\lastpage@lastpageHy{8}
\ttl@finishall
