\relax 
\providecommand\hyper@newdestlabel[2]{}
\providecommand\HyperFirstAtBeginDocument{\AtBeginDocument}
\HyperFirstAtBeginDocument{\ifx\hyper@anchor\@undefined
\global\let\oldcontentsline\contentsline
\gdef\contentsline#1#2#3#4{\oldcontentsline{#1}{#2}{#3}}
\global\let\oldnewlabel\newlabel
\gdef\newlabel#1#2{\newlabelxx{#1}#2}
\gdef\newlabelxx#1#2#3#4#5#6{\oldnewlabel{#1}{{#2}{#3}}}
\AtEndDocument{\ifx\hyper@anchor\@undefined
\let\contentsline\oldcontentsline
\let\newlabel\oldnewlabel
\fi}
\fi}
\global\let\hyper@last\relax 
\gdef\HyperFirstAtBeginDocument#1{#1}
\providecommand\HyField@AuxAddToFields[1]{}
\providecommand\HyField@AuxAddToCoFields[2]{}
\providecommand\pbs@newkey[2]{}
\providecommand\pbs@seq@push@cx[2]{}
\providecommand\pbs@at@end@dvi@check{}
\pbs@at@end@dvi@check
\providecommand\mix@newkey[2]{}
\pbs@newkey{pbs@last@page}{1}
\providecommand \oddpage@label [2]{}
\babel@aux{english}{}
\pgfsyspdfmark {pgfid1}{16138498}{18199910}
\@writefile{lof}{\contentsline {figure}{\numberline {\oldstylenums  {1}}{\ignorespaces \oldstylenums  {Structure of (E)-1-(phenyldiazenyl)naphthalen-2-ol}\relax }}{1}{figure.caption.2}}
\citation{chemspider}
\citation{lecture}
\pbs@newkey{pbs@last@page}{2}
\@writefile{toc}{\contentsline {section}{\numberline { \oldstylenums  {1} }Introduction}{2}{section.1}}
\@writefile{toc}{\contentsline {subsection}{\numberline { \oldstylenums  { \oldstylenums  {1} .1} }Reaction}{2}{subsection.1.1}}
\pgfsyspdfmark {pgfid3}{6093322}{32380934}
\pgfsyspdfmark {pgfid4}{14487082}{32358816}
\pgfsyspdfmark {pgfid5}{21348549}{37412089}
\pgfsyspdfmark {pgfid6}{23816896}{29071366}
\pgfsyspdfmark {pgfid2}{6080215}{32380934}
\@writefile{lof}{\contentsline {figure}{\numberline {\oldstylenums  {2}}{\ignorespaces Reaction equation: Nitration reaction.\relax }}{2}{figure.caption.3}}
\@writefile{toc}{\contentsline {subsection}{\numberline { \oldstylenums  { \oldstylenums  {1} .2} }Reaction Mechanism}{2}{subsection.1.2}}
\pgfsyspdfmark {pgfid8}{6370275}{13384027}
\pgfsyspdfmark {pgfid11}{16988090}{13384027}
\pgfsyspdfmark {pgfid9}{17239093}{13384027}
\pgfsyspdfmark {pgfid17}{30863427}{20077839}
\pgfsyspdfmark {pgfid13}{22601030}{17333191}
\pgfsyspdfmark {pgfid18}{22601030}{9499462}
\pgfsyspdfmark {pgfid12}{22587923}{17333191}
\pgfsyspdfmark {pgfid7}{6357168}{13384027}
\pgfsyspdfmark {pgfid19}{31880984}{13384027}
\pgfsyspdfmark {pgfid20}{32065009}{13384027}
\pgfsyspdfmark {pgfid21}{32249034}{13384027}
\pgfsyspdfmark {pgfid22}{32433059}{13384027}
\pgfsyspdfmark {pgfid23}{32617084}{13384027}
\pgfsyspdfmark {pgfid24}{32801109}{13384027}
\@writefile{lof}{\contentsline {figure}{\numberline {\oldstylenums  {3}}{\ignorespaces \oldstylenums  {2-Naphtol reacts as a br\o nsted acid, which results in a conjugated anion.}\relax }}{2}{figure.caption.4}}
\pbs@newkey{pbs@last@page}{3}
\pgfsyspdfmark {pgfid31}{14048874}{49957983}
\pgfsyspdfmark {pgfid27}{5786477}{47213335}
\pgfsyspdfmark {pgfid32}{5786477}{37820389}
\pgfsyspdfmark {pgfid26}{5773370}{47213335}
\pgfsyspdfmark {pgfid33}{16876839}{44170015}
\pgfsyspdfmark {pgfid34}{24240572}{38163914}
\pgfsyspdfmark {pgfid25}{5104465}{47213335}
\pgfsyspdfmark {pgfid35}{33501737}{47213335}
\pgfsyspdfmark {pgfid36}{33685762}{47213335}
\pgfsyspdfmark {pgfid37}{33869787}{47213335}
\pgfsyspdfmark {pgfid38}{34053812}{47213335}
\@writefile{lof}{\contentsline {figure}{\numberline {\oldstylenums  {4}}{\ignorespaces \oldstylenums  {The nucleophilic carbon and the electrophilic nitrogen atom react while deprotonizing the carbon atom and protonizing the oxygen atom.}\relax }}{3}{figure.caption.5}}
\pbs@newkey{pbs@last@page}{4}
\@writefile{toc}{\contentsline {subsection}{\numberline { \oldstylenums  { \oldstylenums  {1} .3} }Preparation}{4}{subsection.1.3}}
\@writefile{toc}{\contentsline {subsubsection}{\numberline { \oldstylenums  { \oldstylenums  { \oldstylenums  {1} .3} .1} }Hazards}{4}{subsubsection.1.3.1}}
\@writefile{toc}{\contentsline {subsubsection}{\numberline { \oldstylenums  { \oldstylenums  { \oldstylenums  {1} .3} .2} }Waste}{4}{subsubsection.1.3.2}}
\citation{pubchem-product}
\pbs@newkey{pbs@last@page}{5}
\@writefile{toc}{\contentsline {section}{\numberline { \oldstylenums  {2} }Procedure}{5}{section.2}}
\@writefile{toc}{\contentsline {section}{\numberline { \oldstylenums  {3} }Characterization}{5}{section.3}}
\@writefile{toc}{\contentsline {subsection}{\numberline { \oldstylenums  { \oldstylenums  {3} .1} }Thin Layer Chromatography}{5}{subsection.3.1}}
\@writefile{lof}{\contentsline {figure}{\numberline {\oldstylenums  {5}}{\ignorespaces \oldstylenums  {This is a photo of the thin layer chromatography plate viewed under UV light. It clearly shows that in the product (P), there isn't really any 2-Naphtol (2-N) anymore.}\relax }}{5}{figure.caption.7}}
\@writefile{toc}{\contentsline {subsection}{\numberline { \oldstylenums  { \oldstylenums  {3} .2} }Melting Point}{5}{subsection.3.2}}
\citation{ir-product}
\citation{ir-product}
\citation{ups}
\citation{ups}
\citation{ups}
\pbs@newkey{pbs@last@page}{6}
\@writefile{toc}{\contentsline {subsection}{\numberline { \oldstylenums  { \oldstylenums  {3} .3} }Infrared Spectroscopy}{6}{subsection.3.3}}
\@writefile{lof}{\contentsline {figure}{\numberline {\oldstylenums  {6}}{\ignorespaces \oldstylenums  {This is the IR spectrum gotten from the synthesized product. Compared to scheme\ \ref  {fig:ir_lit}, it is similar with literature spectra, but there are some parts which are not matching.}\relax }}{6}{figure.caption.10}}
\@writefile{lof}{\contentsline {figure}{\numberline {\oldstylenums  {7}}{\ignorespaces \oldstylenums  {This is a literatur IR spectrum, found on source \cite  {ir-product}}\relax }}{6}{figure.caption.11}}
\providecommand*\caption@xref[2]{\@setref\relax\@undefined{#1}}
\newlabel{fig:ir_lit}{{\oldstylenums  {7}}{6}{\oldstylenums {This is a literatur IR spectrum, found on source \cite {ir-product}}\relax }{figure.caption.11}{}}
\pgfsyspdfmark {pgfid39}{27473084}{16335282}
\pgfsyspdfmark {pgfid40}{27473084}{15385011}
\pgfsyspdfmark {pgfid41}{27473084}{14434740}
\pgfsyspdfmark {pgfid42}{27216052}{13484469}
\pbs@newkey{pbs@last@page}{7}
\@writefile{toc}{\contentsline {section}{\numberline { \oldstylenums  {4} }Appendix}{7}{section.4}}
\@writefile{toc}{\contentsline {subsection}{\numberline { \oldstylenums  { \oldstylenums  {4} .1} }H Statements}{7}{subsection.4.1}}
\pbs@newkey{pbs@last@page}{8}
\@writefile{toc}{\contentsline {subsection}{\numberline { \oldstylenums  { \oldstylenums  {4} .2} }P Statements}{8}{subsection.4.2}}
\pbs@newkey{pbs@last@page}{9}
\bibstyle{unsrt}
\bibdata{literature}
\bibcite{chemspider}{1}
\bibcite{lecture}{2}
\bibcite{pubchem-product}{3}
\bibcite{ir-product}{4}
\bibcite{ups}{5}
\pbs@newkey{pbs@last@page}{10}
\newlabel{LastPage}{{}{10}{}{page.10}{}}
\xdef\lastpage@lastpage{10}
\xdef\lastpage@lastpageHy{10}
\ttl@finishall
