\relax 
\providecommand\hyper@newdestlabel[2]{}
\providecommand\HyperFirstAtBeginDocument{\AtBeginDocument}
\HyperFirstAtBeginDocument{\ifx\hyper@anchor\@undefined
\global\let\oldcontentsline\contentsline
\gdef\contentsline#1#2#3#4{\oldcontentsline{#1}{#2}{#3}}
\global\let\oldnewlabel\newlabel
\gdef\newlabel#1#2{\newlabelxx{#1}#2}
\gdef\newlabelxx#1#2#3#4#5#6{\oldnewlabel{#1}{{#2}{#3}}}
\AtEndDocument{\ifx\hyper@anchor\@undefined
\let\contentsline\oldcontentsline
\let\newlabel\oldnewlabel
\fi}
\fi}
\global\let\hyper@last\relax 
\gdef\HyperFirstAtBeginDocument#1{#1}
\providecommand\HyField@AuxAddToFields[1]{}
\providecommand\HyField@AuxAddToCoFields[2]{}
\providecommand\pbs@newkey[2]{}
\providecommand\pbs@seq@push@cx[2]{}
\providecommand\pbs@at@end@dvi@check{}
\pbs@at@end@dvi@check
\providecommand\mix@newkey[2]{}
\pbs@newkey{pbs@last@page}{1}
\providecommand \oddpage@label [2]{}
\babel@aux{english}{}
\pgfsyspdfmark {pgfid1}{13449490}{15604731}
\@writefile{lof}{\contentsline {figure}{\numberline {\oldstylenums  {1}}{\ignorespaces Structure of (Cyclohexylidenemethyl)benzene\relax }}{1}{figure.caption.2}}
\citation{benzene}
\citation{reactionMech}
\citation{reactionMechW}
\pbs@newkey{pbs@last@page}{2}
\@writefile{toc}{\contentsline {section}{\numberline { \oldstylenums  {1} }Introduction}{2}{section.1}}
\@writefile{toc}{\contentsline {subsection}{\numberline { \oldstylenums  { \oldstylenums  {1} .1} }Reaction}{2}{subsection.1.1}}
\pgfsyspdfmark {pgfid3}{10622596}{35817464}
\pgfsyspdfmark {pgfid4}{26475278}{35751928}
\pgfsyspdfmark {pgfid2}{5318195}{35817464}
\pgfsyspdfmark {pgfid6}{13342536}{28125194}
\pgfsyspdfmark {pgfid7}{19424866}{26314234}
\pgfsyspdfmark {pgfid5}{11547439}{27129047}
\@writefile{toc}{\contentsline {subsection}{\numberline { \oldstylenums  { \oldstylenums  {1} .2} }Reaction Mechanism}{2}{subsection.1.2}}
\pgfsyspdfmark {pgfid8}{15533137}{20341916}
\pgfsyspdfmark {pgfid10}{7659692}{11673240}
\pgfsyspdfmark {pgfid11}{15587691}{10796368}
\pgfsyspdfmark {pgfid12}{25243874}{11561010}
\pgfsyspdfmark {pgfid9}{5354136}{11673240}
\pgfsyspdfmark {pgfid13}{32067700}{11673240}
\pgfsyspdfmark {pgfid14}{32067700}{11673240}
\pgfsyspdfmark {pgfid15}{32067700}{11673240}
\newlabel{eq:mech1}{{\computerFont   \oldstylenums  {1} |\ \oldstylenums  {3}}{2}{Reaction Mechanism}{equation.1.3}{}}
\pbs@newkey{pbs@last@page}{3}
\pgfsyspdfmark {pgfid17}{12198856}{45449995}
\pgfsyspdfmark {pgfid18}{22967949}{44756575}
\pgfsyspdfmark {pgfid16}{5961140}{45768008}
\pgfsyspdfmark {pgfid19}{33197136}{45768008}
\pgfsyspdfmark {pgfid20}{33197136}{45768008}
\newlabel{eq:mech2}{{\computerFont   \oldstylenums  {1} |\ \oldstylenums  {4}}{3}{Reaction Mechanism}{equation.1.4}{}}
\@writefile{toc}{\contentsline {subsection}{\numberline { \oldstylenums  { \oldstylenums  {1} .3} }Preparation}{3}{subsection.1.3}}
\@writefile{toc}{\contentsline {subsubsection}{\numberline { \oldstylenums  { \oldstylenums  { \oldstylenums  {1} .3} .1} }Hazard Statements}{3}{subsubsection.1.3.1}}
\pbs@newkey{pbs@last@page}{4}
\@writefile{toc}{\contentsline {subsubsection}{\numberline { \oldstylenums  { \oldstylenums  { \oldstylenums  {1} .3} .2} }Waste}{4}{subsubsection.1.3.2}}
\citation{ups}
\citation{ups}
\citation{ups}
\pbs@newkey{pbs@last@page}{5}
\@writefile{toc}{\contentsline {section}{\numberline { \oldstylenums  {2} }Procedure}{5}{section.2}}
\@writefile{toc}{\contentsline {section}{\numberline { \oldstylenums  {3} }Characterization}{5}{section.3}}
\@writefile{toc}{\contentsline {subsection}{\numberline { \oldstylenums  { \oldstylenums  {3} .1} }Thin Layer Chromatography}{5}{subsection.3.1}}
\@writefile{toc}{\contentsline {subsection}{\numberline { \oldstylenums  { \oldstylenums  {3} .2} }Infrared Spectroscopy}{5}{subsection.3.2}}
\@writefile{lof}{\contentsline {figure}{\numberline {\oldstylenums  {2}}{\ignorespaces \oldstylenums  {On the left side, the measured spectrum of the synthesized compound is visible.}\relax }}{5}{figure.caption.6}}
\pbs@newkey{pbs@last@page}{6}
\pgfsyspdfmark {pgfid21}{28014279}{48839193}
\pgfsyspdfmark {pgfid22}{28014279}{47888922}
\pgfsyspdfmark {pgfid23}{27757247}{46938651}
\pbs@newkey{pbs@last@page}{7}
\@writefile{toc}{\contentsline {section}{\numberline { \oldstylenums  {4} }Appendix}{7}{section.4}}
\@writefile{toc}{\contentsline {subsection}{\numberline { \oldstylenums  { \oldstylenums  {4} .1} }H Statements}{7}{subsection.4.1}}
\pbs@newkey{pbs@last@page}{8}
\@writefile{toc}{\contentsline {subsection}{\numberline { \oldstylenums  { \oldstylenums  {4} .2} }P Statements}{8}{subsection.4.2}}
\pbs@newkey{pbs@last@page}{9}
\bibstyle{unsrt}
\bibdata{literature}
\bibcite{benzene}{1}
\bibcite{reactionMech}{2}
\bibcite{reactionMechW}{3}
\bibcite{ups}{4}
\pbs@newkey{pbs@last@page}{10}
\newlabel{LastPage}{{}{10}{}{page.10}{}}
\xdef\lastpage@lastpage{10}
\xdef\lastpage@lastpageHy{10}
\ttl@finishall
