\relax 
\providecommand\hyper@newdestlabel[2]{}
\providecommand\HyperFirstAtBeginDocument{\AtBeginDocument}
\HyperFirstAtBeginDocument{\ifx\hyper@anchor\@undefined
\global\let\oldcontentsline\contentsline
\gdef\contentsline#1#2#3#4{\oldcontentsline{#1}{#2}{#3}}
\global\let\oldnewlabel\newlabel
\gdef\newlabel#1#2{\newlabelxx{#1}#2}
\gdef\newlabelxx#1#2#3#4#5#6{\oldnewlabel{#1}{{#2}{#3}}}
\AtEndDocument{\ifx\hyper@anchor\@undefined
\let\contentsline\oldcontentsline
\let\newlabel\oldnewlabel
\fi}
\fi}
\global\let\hyper@last\relax 
\gdef\HyperFirstAtBeginDocument#1{#1}
\providecommand\HyField@AuxAddToFields[1]{}
\providecommand\HyField@AuxAddToCoFields[2]{}
\providecommand\pbs@newkey[2]{}
\providecommand\pbs@seq@push@cx[2]{}
\providecommand\pbs@at@end@dvi@check{}
\pbs@at@end@dvi@check
\providecommand\mix@newkey[2]{}
\pbs@newkey{pbs@last@page}{1}
\providecommand \oddpage@label [2]{}
\babel@aux{english}{}
\pgfsyspdfmark {pgfid1}{17988538}{18029280}
\@writefile{lof}{\contentsline {figure}{\numberline {\oldstylenums  {1}}{\ignorespaces \oldstylenums  {Structure of 3,5-Diphenyloxazole}\relax }}{1}{figure.caption.2}}
\citation{pubchem-product}
\citation{organic-chemistry-claisen}
\citation{chemtube}
\pbs@newkey{pbs@last@page}{2}
\@writefile{toc}{\contentsline {section}{\numberline { \oldstylenums  {1} }Introduction}{2}{section.1}}
\@writefile{toc}{\contentsline {subsection}{\numberline { \oldstylenums  { \oldstylenums  {1} .1} }Reaction}{2}{subsection.1.1}}
\pgfsyspdfmark {pgfid3}{11502115}{38029045}
\pgfsyspdfmark {pgfid4}{12427326}{38029045}
\pgfsyspdfmark {pgfid5}{21214760}{38029045}
\pgfsyspdfmark {pgfid6}{27397687}{36828165}
\pgfsyspdfmark {pgfid2}{6040432}{38029045}
\pgfsyspdfmark {pgfid8}{21255778}{33912148}
\pgfsyspdfmark {pgfid7}{10856767}{33489778}
\@writefile{lof}{\contentsline {figure}{\numberline {\oldstylenums  {2}}{\ignorespaces Reaction equation.\relax }}{2}{figure.caption.3}}
\@writefile{toc}{\contentsline {subsection}{\numberline { \oldstylenums  { \oldstylenums  {1} .2} }Reaction Mechanism}{2}{subsection.1.2}}
\pgfsyspdfmark {pgfid10}{7129114}{17367905}
\pgfsyspdfmark {pgfid13}{14213143}{19023926}
\pgfsyspdfmark {pgfid11}{14732771}{17367905}
\pgfsyspdfmark {pgfid14}{21490114}{18730234}
\pgfsyspdfmark {pgfid16}{27452676}{18763330}
\pgfsyspdfmark {pgfid15}{31109039}{18730234}
\pgfsyspdfmark {pgfid9}{6789638}{17367905}
\pgfsyspdfmark {pgfid17}{31448514}{17367905}
\pgfsyspdfmark {pgfid18}{31632539}{17367905}
\pgfsyspdfmark {pgfid19}{31816564}{17367905}
\pgfsyspdfmark {pgfid20}{32000589}{17367905}
\pgfsyspdfmark {pgfid21}{32184614}{17367905}
\pgfsyspdfmark {pgfid22}{32368639}{17367905}
\@writefile{lof}{\contentsline {figure}{\numberline {\oldstylenums  {3}}{\ignorespaces \oldstylenums  {Hydride deprotonizes acetophenone, which results in a reaction with ethyl benzoate.}\relax }}{2}{figure.caption.5}}
\pgfsyspdfmark {pgfid28}{14268894}{12082593}
\pgfsyspdfmark {pgfid30}{14268894}{8150433}
\pgfsyspdfmark {pgfid24}{9411857}{9100377}
\pgfsyspdfmark {pgfid33}{26992697}{11162869}
\pgfsyspdfmark {pgfid31}{22135660}{8180653}
\pgfsyspdfmark {pgfid34}{29891879}{8180653}
\pgfsyspdfmark {pgfid39}{30146518}{8958893}
\pgfsyspdfmark {pgfid35}{30384086}{8180653}
\pgfsyspdfmark {pgfid23}{5140221}{9833233}
\pgfsyspdfmark {pgfid64}{33097931}{9833233}
\pgfsyspdfmark {pgfid65}{33281956}{9833233}
\pgfsyspdfmark {pgfid66}{33465981}{9833233}
\pgfsyspdfmark {pgfid67}{33650006}{9833233}
\pgfsyspdfmark {pgfid68}{33834031}{9833233}
\pgfsyspdfmark {pgfid69}{34018056}{9833233}
\@writefile{lof}{\contentsline {figure}{\numberline {\oldstylenums  {4}}{\ignorespaces The hightly conjugated dibenzoylmethane reacts with hydroxylamine\relax }}{2}{figure.caption.6}}
\pbs@newkey{pbs@last@page}{3}
\pgfsyspdfmark {pgfid73}{14590351}{49894116}
\pgfsyspdfmark {pgfid78}{16306466}{46949583}
\pgfsyspdfmark {pgfid71}{9733314}{46911900}
\pgfsyspdfmark {pgfid93}{25233342}{48904975}
\pgfsyspdfmark {pgfid97}{30341382}{49872505}
\pgfsyspdfmark {pgfid91}{23781665}{45922759}
\pgfsyspdfmark {pgfid98}{31537884}{45922759}
\pgfsyspdfmark {pgfid99}{32030091}{45922759}
\pgfsyspdfmark {pgfid70}{5461678}{48119892}
\pgfsyspdfmark {pgfid100}{32776474}{48119892}
\pgfsyspdfmark {pgfid101}{32960499}{48119892}
\pgfsyspdfmark {pgfid102}{33144524}{48119892}
\pgfsyspdfmark {pgfid103}{33328549}{48119892}
\pgfsyspdfmark {pgfid104}{33512574}{48119892}
\pgfsyspdfmark {pgfid105}{33696599}{48119892}
\@writefile{lof}{\contentsline {figure}{\numberline {\oldstylenums  {5}}{\ignorespaces The nitrogen atom builds a double bond, resulting in a water leaving group. The alcohol group then reacts as a br\o nsted base, which is another water leaving group.\relax }}{3}{figure.caption.7}}
\pgfsyspdfmark {pgfid107}{14345038}{37381093}
\pgfsyspdfmark {pgfid106}{10399771}{38677449}
\pbs@newkey{pbs@last@page}{4}
\@writefile{toc}{\contentsline {subsection}{\numberline { \oldstylenums  { \oldstylenums  {1} .3} }Preparation}{4}{subsection.1.3}}
\@writefile{toc}{\contentsline {subsubsection}{\numberline { \oldstylenums  { \oldstylenums  { \oldstylenums  {1} .3} .1} }Hazards}{4}{subsubsection.1.3.1}}
\pbs@newkey{pbs@last@page}{5}
\@writefile{toc}{\contentsline {subsubsection}{\numberline { \oldstylenums  { \oldstylenums  { \oldstylenums  {1} .3} .2} }Waste}{5}{subsubsection.1.3.2}}
\@writefile{toc}{\contentsline {section}{\numberline { \oldstylenums  {2} }Procedure}{5}{section.2}}
\citation{chemspider-diketone}
\citation{ir-intermediate}
\citation{ir-intermediate}
\pbs@newkey{pbs@last@page}{6}
\@writefile{toc}{\contentsline {section}{\numberline { \oldstylenums  {3} }Characterization}{6}{section.3}}
\@writefile{toc}{\contentsline {subsection}{\numberline { \oldstylenums  { \oldstylenums  {3} .1} }Thin Layer Chromatography}{6}{subsection.3.1}}
\@writefile{lof}{\contentsline {figure}{\numberline {\oldstylenums  {6}}{\ignorespaces \oldstylenums  {Those photos show the TLC plate of the two synthesis steps. In the left one, the diketone intermediate (P) was compared to the both educts, namely acetophenone (AP) and ethyl benzoate (EB). In the right picutre, the end product was compared to the products of Asbj\o rn (As) and Sarina (S). It is visible that the R\textsubscript  {f} values are very similar and the products seems to be pure.}\relax }}{6}{figure.caption.11}}
\@writefile{lof}{\contentsline {figure}{\numberline {\oldstylenums  {7}}{\ignorespaces Left: First TLC. Right: Second TLC\relax }}{6}{figure.caption.12}}
\@writefile{toc}{\contentsline {subsection}{\numberline { \oldstylenums  { \oldstylenums  {3} .2} }Melting Point}{6}{subsection.3.2}}
\@writefile{lof}{\contentsline {figure}{\numberline {\oldstylenums  {8}}{\ignorespaces Left: Melting point of the intermediate. Right: Melting point of the product.\relax }}{6}{figure.caption.13}}
\citation{ups}
\citation{ups}
\citation{ups}
\pbs@newkey{pbs@last@page}{7}
\@writefile{toc}{\contentsline {subsection}{\numberline { \oldstylenums  { \oldstylenums  {3} .3} }Infrared Spectroscopy}{7}{subsection.3.3}}
\@writefile{lof}{\contentsline {figure}{\numberline {\oldstylenums  {9}}{\ignorespaces \oldstylenums  {Left: Photo of the IR spectrum of the first synthesis. As there was not enough product in my case, this IR has been done by Sarina. \par \vspace  \smallskipamount Right: Literature IR spectrum \cite  {ir-intermediate} \par \vspace  \smallskipamount The spectra appear to be very similar, only the height of some peaks differs. Additionally, the synthesized product will contain more solvent.}\relax }}{7}{figure.caption.14}}
\@writefile{lof}{\contentsline {figure}{\numberline {\oldstylenums  {10}}{\ignorespaces \oldstylenums  {As there no literature spectrum available, only the infrared spectrum of the syntheiszed end product is visible.}\relax }}{7}{figure.caption.15}}
\pgfsyspdfmark {pgfid108}{27360755}{10918493}
\pgfsyspdfmark {pgfid109}{27617787}{9968222}
\pbs@newkey{pbs@last@page}{8}
\@writefile{toc}{\contentsline {section}{\numberline { \oldstylenums  {4} }Appendix}{8}{section.4}}
\@writefile{toc}{\contentsline {subsection}{\numberline { \oldstylenums  { \oldstylenums  {4} .1} }H Statements}{8}{subsection.4.1}}
\pbs@newkey{pbs@last@page}{9}
\@writefile{toc}{\contentsline {subsection}{\numberline { \oldstylenums  { \oldstylenums  {4} .2} }P Statements}{9}{subsection.4.2}}
\pbs@newkey{pbs@last@page}{10}
\pbs@newkey{pbs@last@page}{11}
\bibstyle{unsrt}
\bibdata{literature}
\bibcite{pubchem-product}{1}
\bibcite{organic-chemistry-claisen}{2}
\bibcite{chemtube}{3}
\bibcite{chemspider-diketone}{4}
\bibcite{ir-intermediate}{5}
\bibcite{ups}{6}
\pbs@newkey{pbs@last@page}{12}
\newlabel{LastPage}{{}{12}{}{page.12}{}}
\xdef\lastpage@lastpage{12}
\xdef\lastpage@lastpageHy{12}
\ttl@finishall
