\relax 
\providecommand\hyper@newdestlabel[2]{}
\providecommand\HyperFirstAtBeginDocument{\AtBeginDocument}
\HyperFirstAtBeginDocument{\ifx\hyper@anchor\@undefined
\global\let\oldcontentsline\contentsline
\gdef\contentsline#1#2#3#4{\oldcontentsline{#1}{#2}{#3}}
\global\let\oldnewlabel\newlabel
\gdef\newlabel#1#2{\newlabelxx{#1}#2}
\gdef\newlabelxx#1#2#3#4#5#6{\oldnewlabel{#1}{{#2}{#3}}}
\AtEndDocument{\ifx\hyper@anchor\@undefined
\let\contentsline\oldcontentsline
\let\newlabel\oldnewlabel
\fi}
\fi}
\global\let\hyper@last\relax 
\gdef\HyperFirstAtBeginDocument#1{#1}
\providecommand\HyField@AuxAddToFields[1]{}
\providecommand\HyField@AuxAddToCoFields[2]{}
\providecommand\pbs@newkey[2]{}
\providecommand\pbs@seq@push@cx[2]{}
\providecommand\pbs@at@end@dvi@check{}
\pbs@at@end@dvi@check
\providecommand\mix@newkey[2]{}
\pbs@newkey{pbs@last@page}{1}
\providecommand \oddpage@label [2]{}
\babel@aux{english}{}
\pgfsyspdfmark {pgfid1}{17535922}{13928316}
\@writefile{lof}{\contentsline {figure}{\numberline {\oldstylenums  {1}}{\ignorespaces Structure of Tripheylmethanol\relax }}{1}{figure.caption.2}}
\citation{organic-chemistry}
\pbs@newkey{pbs@last@page}{2}
\@writefile{toc}{\contentsline {section}{\numberline { \oldstylenums  {1} }Introduction}{2}{section.1}}
\pgfsyspdfmark {pgfid2}{5006425}{45018202}
\@writefile{toc}{\contentsline {subsection}{\numberline { \oldstylenums  { \oldstylenums  {1} .1} }Reaction}{2}{subsection.1.1}}
\pgfsyspdfmark {pgfid4}{11849495}{38464154}
\pgfsyspdfmark {pgfid5}{21200663}{38418442}
\pgfsyspdfmark {pgfid3}{11836388}{38464154}
\pgfsyspdfmark {pgfid7}{9041893}{33237869}
\pgfsyspdfmark {pgfid8}{22515463}{28080216}
\pgfsyspdfmark {pgfid6}{10442476}{31128951}
\@writefile{toc}{\contentsline {subsection}{\numberline { \oldstylenums  { \oldstylenums  {1} .2} }Reaction Mechanism}{2}{subsection.1.2}}
\pgfsyspdfmark {pgfid10}{11431441}{10359097}
\pgfsyspdfmark {pgfid11}{16497743}{10359097}
\pgfsyspdfmark {pgfid12}{23352786}{6826223}
\pgfsyspdfmark {pgfid9}{9389285}{10359097}
\pgfsyspdfmark {pgfid13}{29768991}{10359097}
\pgfsyspdfmark {pgfid14}{29768991}{10359097}
\pgfsyspdfmark {pgfid15}{29768991}{10359097}
\newlabel{eq:mech1}{{\computerFont   \oldstylenums  {1} |\ \oldstylenums  {2}}{2}{Reaction Mechanism}{equation.1.2}{}}
\pgfsyspdfmark {pgfid16}{25133636}{4736286}
\pbs@newkey{pbs@last@page}{3}
\pgfsyspdfmark {pgfid18}{14017240}{43258471}
\pgfsyspdfmark {pgfid21}{16317804}{46240687}
\pgfsyspdfmark {pgfid19}{14866127}{43258471}
\pgfsyspdfmark {pgfid32}{24604441}{44633519}
\pgfsyspdfmark {pgfid30}{23465214}{43258471}
\pgfsyspdfmark {pgfid41}{27050954}{46240687}
\pgfsyspdfmark {pgfid37}{25599277}{43258471}
\pgfsyspdfmark {pgfid17}{9729023}{45016817}
\pgfsyspdfmark {pgfid58}{30017823}{45016817}
\pgfsyspdfmark {pgfid59}{30017823}{45016817}
\pgfsyspdfmark {pgfid60}{30017823}{45016817}
\pgfsyspdfmark {pgfid61}{30017823}{45016817}
\pgfsyspdfmark {pgfid62}{30017823}{45016817}
\newlabel{eq:mech2}{{\computerFont   \oldstylenums  {1} |\ \oldstylenums  {3}}{3}{Reaction Mechanism}{equation.1.3}{}}
\pgfsyspdfmark {pgfid68}{17285979}{37867446}
\pgfsyspdfmark {pgfid64}{15834302}{34885230}
\pgfsyspdfmark {pgfid85}{23850774}{35376750}
\pgfsyspdfmark {pgfid63}{11562666}{36599667}
\pgfsyspdfmark {pgfid86}{27595610}{36599667}
\newlabel{eq:mech3}{{\computerFont   \oldstylenums  {1} |\ \oldstylenums  {4}}{3}{Reaction Mechanism}{equation.1.4}{}}
\pbs@newkey{pbs@last@page}{4}
\@writefile{toc}{\contentsline {subsection}{\numberline { \oldstylenums  { \oldstylenums  {1} .3} }Preparation}{4}{subsection.1.3}}
\@writefile{toc}{\contentsline {subsubsection}{\numberline { \oldstylenums  { \oldstylenums  { \oldstylenums  {1} .3} .1} }Hazards}{4}{subsubsection.1.3.1}}
\citation{chemspider}
\pbs@newkey{pbs@last@page}{5}
\@writefile{toc}{\contentsline {subsubsection}{\numberline { \oldstylenums  { \oldstylenums  { \oldstylenums  {1} .3} .2} }Waste}{5}{subsubsection.1.3.2}}
\@writefile{toc}{\contentsline {section}{\numberline { \oldstylenums  {2} }Procedure}{5}{section.2}}
\@writefile{toc}{\contentsline {section}{\numberline { \oldstylenums  {3} }Characteraization}{5}{section.3}}
\@writefile{toc}{\contentsline {subsection}{\numberline { \oldstylenums  { \oldstylenums  {3} .1} }Melting Point}{5}{subsection.3.1}}
\@writefile{toc}{\contentsline {subsection}{\numberline { \oldstylenums  { \oldstylenums  {3} .2} }Thin Layer Chromatography}{5}{subsection.3.2}}
\@writefile{lof}{\contentsline {figure}{\numberline {\oldstylenums  {2}}{\ignorespaces \oldstylenums  {On the left side, a photo of all TLC plates made in this experiment is visible. The most left one shows Bromobenzene (Br), Benzophenone (Bn) and triphenylmethanol, the synthesized product (P). The two plates on the right side show the TLCs of the flash column chromatography, while vial 1 was replaced by the reference solution. It is visible that vials 9 to 14 contain the desired substance.}\relax }}{5}{figure.caption.4}}
\citation{sdbs}
\citation{sdbs}
\citation{ups}
\citation{ups}
\citation{ups}
\citation{ups}
\pbs@newkey{pbs@last@page}{6}
\@writefile{toc}{\contentsline {subsection}{\numberline { \oldstylenums  { \oldstylenums  {3} .3} }Infrared Spectroscopy}{6}{subsection.3.3}}
\@writefile{lof}{\contentsline {figure}{\numberline {\oldstylenums  {3}}{\ignorespaces \oldstylenums  {On the right side, you can see a literature IR spectrum \cite  {sdbs}}\relax }}{6}{figure.caption.6}}
\providecommand*\caption@xref[2]{\@setref\relax\@undefined{#1}}
\newlabel{fig:ir_lit}{{\oldstylenums  {3}}{6}{\oldstylenums {On the right side, you can see a literature IR spectrum \cite {sdbs}}\relax }{figure.caption.6}{}}
\@writefile{lof}{\contentsline {figure}{\numberline {\oldstylenums  {4}}{\ignorespaces \oldstylenums  {This is the IR gotten from the syntesis in this experiment. Compared to fig. \ref  {fig:ir_lit}, it is visible that the peaks (exept the most left ones) are very similar.}\relax }}{6}{figure.caption.7}}
\pgfsyspdfmark {pgfid87}{28447603}{10294852}
\pgfsyspdfmark {pgfid88}{28416539}{9344581}
\pgfsyspdfmark {pgfid89}{28416539}{8394310}
\pgfsyspdfmark {pgfid90}{28416539}{7444039}
\pbs@newkey{pbs@last@page}{7}
\@writefile{toc}{\contentsline {section}{\numberline { \oldstylenums  {4} }Appendix}{7}{section.4}}
\newlabel{sec:appendix}{{ \oldstylenums  {4} }{7}{Appendix}{section.4}{}}
\@writefile{toc}{\contentsline {subsection}{\numberline { \oldstylenums  { \oldstylenums  {4} .1} }H Statements}{7}{subsection.4.1}}
\pbs@newkey{pbs@last@page}{8}
\@writefile{toc}{\contentsline {subsection}{\numberline { \oldstylenums  { \oldstylenums  {4} .2} }P Statements}{8}{subsection.4.2}}
\pbs@newkey{pbs@last@page}{9}
\bibstyle{unsrt}
\bibdata{literature}
\bibcite{organic-chemistry}{1}
\bibcite{chemspider}{2}
\bibcite{sdbs}{3}
\bibcite{ups}{4}
\pbs@newkey{pbs@last@page}{10}
\newlabel{LastPage}{{}{10}{}{page.10}{}}
\xdef\lastpage@lastpage{10}
\xdef\lastpage@lastpageHy{10}
\ttl@finishall
