\relax 
\providecommand\hyper@newdestlabel[2]{}
\providecommand\HyperFirstAtBeginDocument{\AtBeginDocument}
\HyperFirstAtBeginDocument{\ifx\hyper@anchor\@undefined
\global\let\oldcontentsline\contentsline
\gdef\contentsline#1#2#3#4{\oldcontentsline{#1}{#2}{#3}}
\global\let\oldnewlabel\newlabel
\gdef\newlabel#1#2{\newlabelxx{#1}#2}
\gdef\newlabelxx#1#2#3#4#5#6{\oldnewlabel{#1}{{#2}{#3}}}
\AtEndDocument{\ifx\hyper@anchor\@undefined
\let\contentsline\oldcontentsline
\let\newlabel\oldnewlabel
\fi}
\fi}
\global\let\hyper@last\relax 
\gdef\HyperFirstAtBeginDocument#1{#1}
\providecommand\HyField@AuxAddToFields[1]{}
\providecommand\HyField@AuxAddToCoFields[2]{}
\providecommand\pbs@newkey[2]{}
\providecommand\pbs@seq@push@cx[2]{}
\providecommand\pbs@at@end@dvi@check{}
\pbs@at@end@dvi@check
\providecommand\mix@newkey[2]{}
\pbs@newkey{pbs@last@page}{1}
\providecommand \oddpage@label [2]{}
\babel@aux{english}{}
\pgfsyspdfmark {pgfid1}{14103769}{15945996}
\@writefile{lof}{\contentsline {figure}{\numberline {\oldstylenums  {1}}{\ignorespaces \oldstylenums  {Structure of 4-Ethylbenzoic acid}\relax }}{1}{figure.caption.2}}
\pbs@newkey{pbs@last@page}{2}
\@writefile{toc}{\contentsline {section}{\numberline { \oldstylenums  {1} }Introduction}{2}{section.1}}
\@writefile{toc}{\contentsline {subsection}{\numberline { \oldstylenums  { \oldstylenums  {1} .1} }Reaction}{2}{subsection.1.1}}
\@writefile{toc}{\contentsline {subsubsection}{\numberline { \oldstylenums  { \oldstylenums  { \oldstylenums  {1} .1} .1} }Part 1}{2}{subsubsection.1.1.1}}
\pgfsyspdfmark {pgfid3}{5276756}{31020097}
\pgfsyspdfmark {pgfid4}{12978063}{32540402}
\pgfsyspdfmark {pgfid5}{14955171}{29739520}
\pgfsyspdfmark {pgfid6}{22300330}{30146371}
\pgfsyspdfmark {pgfid7}{30001637}{32540402}
\pgfsyspdfmark {pgfid8}{31899577}{29739520}
\pgfsyspdfmark {pgfid2}{5263649}{31020097}
\@writefile{lof}{\contentsline {figure}{\numberline {\oldstylenums  {2}}{\ignorespaces \oldstylenums  {Reaction Scheme of part 1}\relax }}{2}{figure.caption.3}}
\@writefile{toc}{\contentsline {subsubsection}{\numberline { \oldstylenums  { \oldstylenums  { \oldstylenums  {1} .1} .2} }Part 2}{2}{subsubsection.1.1.2}}
\pgfsyspdfmark {pgfid10}{8134079}{21361658}
\pgfsyspdfmark {pgfid11}{21708911}{21030440}
\pgfsyspdfmark {pgfid9}{7895790}{21361658}
\@writefile{lof}{\contentsline {figure}{\numberline {\oldstylenums  {3}}{\ignorespaces \oldstylenums  {Reaction Scheme of part 2}\relax }}{2}{figure.caption.4}}
\@writefile{toc}{\contentsline {subsubsection}{\numberline { \oldstylenums  { \oldstylenums  { \oldstylenums  {1} .1} .3} }Part 3}{2}{subsubsection.1.1.3}}
\pgfsyspdfmark {pgfid13}{6887327}{11541219}
\pgfsyspdfmark {pgfid14}{24351100}{12064396}
\pgfsyspdfmark {pgfid12}{6615746}{11541219}
\@writefile{lof}{\contentsline {figure}{\numberline {\oldstylenums  {4}}{\ignorespaces \oldstylenums  {Reaction Scheme of part 3}\relax }}{2}{figure.caption.5}}
\citation{aibn}
\citation{lecture}
\pbs@newkey{pbs@last@page}{3}
\@writefile{toc}{\contentsline {subsubsection}{\numberline { \oldstylenums  { \oldstylenums  { \oldstylenums  {1} .1} .4} }Part 4}{3}{subsubsection.1.1.4}}
\pgfsyspdfmark {pgfid16}{7471933}{45441537}
\pgfsyspdfmark {pgfid17}{23540790}{45413156}
\pgfsyspdfmark {pgfid15}{7426055}{45441537}
\@writefile{lof}{\contentsline {figure}{\numberline {\oldstylenums  {5}}{\ignorespaces \oldstylenums  {Reaction Scheme of part 4}\relax }}{3}{figure.caption.6}}
\@writefile{toc}{\contentsline {subsection}{\numberline { \oldstylenums  { \oldstylenums  {1} .2} }Reaction Mechanism}{3}{subsection.1.2}}
\@writefile{toc}{\contentsline {subsubsection}{\numberline { \oldstylenums  { \oldstylenums  { \oldstylenums  {1} .2} .1} }Part 1: Radicalic Chain Reaction}{3}{subsubsection.1.2.1}}
\pgfsyspdfmark {pgfid19}{4976172}{34209513}
\pgfsyspdfmark {pgfid20}{28823958}{33625738}
\pgfsyspdfmark {pgfid21}{30265105}{32347798}
\pgfsyspdfmark {pgfid18}{4738604}{34209513}
\pgfsyspdfmark {pgfid22}{33683572}{34209513}
\pgfsyspdfmark {pgfid23}{33867597}{34209513}
\pgfsyspdfmark {pgfid24}{34051622}{34209513}
\pgfsyspdfmark {pgfid25}{34235647}{34209513}
\pgfsyspdfmark {pgfid26}{34419672}{34209513}
\pgfsyspdfmark {pgfid27}{19487126}{31385894}
\pgfsyspdfmark {pgfid28}{19671151}{31385894}
\@writefile{lof}{\contentsline {figure}{\numberline {\oldstylenums  {6}}{\ignorespaces \oldstylenums  {AIBN decomposes homolytically, forming two radicals. Those radicals attack one hydrogen atom of 4-methylbenzoic acid, leaving a new radical behind.}\relax }}{3}{figure.caption.7}}
\pgfsyspdfmark {pgfid30}{11886364}{18411929}
\pgfsyspdfmark {pgfid31}{17699243}{19005746}
\pgfsyspdfmark {pgfid32}{24135046}{21587869}
\pgfsyspdfmark {pgfid33}{29509199}{19005746}
\pgfsyspdfmark {pgfid29}{6238417}{22670688}
\pgfsyspdfmark {pgfid34}{31999735}{22670688}
\pgfsyspdfmark {pgfid35}{32183760}{22670688}
\pgfsyspdfmark {pgfid36}{32367785}{22670688}
\pgfsyspdfmark {pgfid37}{32551810}{22670688}
\pgfsyspdfmark {pgfid38}{32735835}{22670688}
\pgfsyspdfmark {pgfid39}{32919860}{22670688}
\@writefile{lof}{\contentsline {figure}{\numberline {\oldstylenums  {7}}{\ignorespaces \oldstylenums  {The radical formed in the previous step now reacts with N-bromosuccimide, forming a new radical. This proceeds in a reaction with the previously built cyanidodimethylmethane.}\relax }}{3}{figure.caption.8}}
\@writefile{toc}{\contentsline {subsubsection}{\numberline { \oldstylenums  { \oldstylenums  { \oldstylenums  {1} .2} .2} }Part 2: S{\normalfont  \scshape  \bfseries  \textsubscript  {n}}2 Reaction}{3}{subsubsection.1.2.2}}
\citation{wittigReaction}
\pbs@newkey{pbs@last@page}{4}
\pgfsyspdfmark {pgfid43}{9314668}{45166075}
\pgfsyspdfmark {pgfid41}{9491615}{45166075}
\pgfsyspdfmark {pgfid56}{13354992}{42215480}
\pgfsyspdfmark {pgfid57}{31410957}{48135362}
\pgfsyspdfmark {pgfid40}{7449459}{45166075}
\pgfsyspdfmark {pgfid58}{31708817}{45166075}
\@writefile{lof}{\contentsline {figure}{\numberline {\oldstylenums  {8}}{\ignorespaces \oldstylenums  {The nucleophilic phosphorius atom of triphenylphosphonium attacks the $\sigma $*-orbital of the methyl carbon atom, building a trigonal bipyriamidal intermediate.}\relax }}{4}{figure.caption.9}}
\pgfsyspdfmark {pgfid60}{17446651}{32438837}
\pgfsyspdfmark {pgfid59}{11472335}{33123688}
\@writefile{toc}{\contentsline {subsubsection}{\numberline { \oldstylenums  { \oldstylenums  { \oldstylenums  {1} .2} .3} }Part 3: Wittig Reaction}{4}{subsubsection.1.2.3}}
\pgfsyspdfmark {pgfid62}{5791609}{22471008}
\pgfsyspdfmark {pgfid67}{14369791}{23012008}
\pgfsyspdfmark {pgfid63}{14620794}{23012008}
\pgfsyspdfmark {pgfid68}{19640195}{21995872}
\pgfsyspdfmark {pgfid71}{31164875}{23012008}
\pgfsyspdfmark {pgfid69}{28466758}{21309000}
\pgfsyspdfmark {pgfid61}{5452133}{22471008}
\pgfsyspdfmark {pgfid76}{33154069}{22471008}
\pgfsyspdfmark {pgfid77}{33338094}{22471008}
\pgfsyspdfmark {pgfid78}{33522119}{22471008}
\pgfsyspdfmark {pgfid79}{33706144}{22471008}
\@writefile{lof}{\contentsline {figure}{\numberline {\oldstylenums  {9}}{\ignorespaces \oldstylenums  {Hydroxide deprotonates the carbon atom, resulting in a double bond between carbon and phosphorus. This double bond can attack the electrophilic place of the formaldehyde molecule.}\relax }}{4}{figure.caption.11}}
\pgfsyspdfmark {pgfid85}{14167908}{9737037}
\pgfsyspdfmark {pgfid81}{12716231}{12656993}
\pgfsyspdfmark {pgfid86}{28055149}{14507757}
\pgfsyspdfmark {pgfid80}{8444595}{12419425}
\pgfsyspdfmark {pgfid87}{30345631}{12419425}
\pgfsyspdfmark {pgfid88}{30529656}{12419425}
\pgfsyspdfmark {pgfid89}{30713681}{12419425}
\@writefile{lof}{\contentsline {figure}{\numberline {\oldstylenums  {10}}{\ignorespaces \oldstylenums  {The formally negatively charged oxygen atom of the ylide can now attack the positive phosphorus atom, building an unstable four-bond-ring. In this consttellation, the bonds can move and build two double bonds from four single bonds.}\relax }}{4}{figure.caption.12}}
\citation{hydrogenation}
\pbs@newkey{pbs@last@page}{5}
\pgfsyspdfmark {pgfid91}{16448519}{47319081}
\pgfsyspdfmark {pgfid90}{12470467}{48373507}
\@writefile{toc}{\contentsline {subsubsection}{\numberline { \oldstylenums  { \oldstylenums  { \oldstylenums  {1} .2} .4} }Part 4: Catalytic Hydrogenation}{5}{subsubsection.1.2.4}}
\pgfsyspdfmark {pgfid94}{9911142}{37885526}
\pgfsyspdfmark {pgfid95}{17095308}{38196825}
\pgfsyspdfmark {pgfid93}{9660139}{37885526}
\pgfsyspdfmark {pgfid96}{25611459}{39034807}
\pgfsyspdfmark {pgfid97}{26901123}{39352932}
\pgfsyspdfmark {pgfid92}{8991234}{37885526}
\pgfsyspdfmark {pgfid98}{29614968}{37885526}
\pgfsyspdfmark {pgfid99}{29798993}{37885526}
\pgfsyspdfmark {pgfid100}{29983018}{37885526}
\pgfsyspdfmark {pgfid101}{30167043}{37885526}
\@writefile{lof}{\contentsline {figure}{\numberline {\oldstylenums  {11}}{\ignorespaces \oldstylenums  {Formate decomposes to hydride and carbon dioxide. This hydride reacts with water, resulting in hydroxide and hydrogen.}\relax }}{5}{figure.caption.14}}
\pgfsyspdfmark {pgfid103}{9271770}{28798940}
\pgfsyspdfmark {pgfid104}{22720738}{28930640}
\pgfsyspdfmark {pgfid102}{4994563}{30864498}
\pgfsyspdfmark {pgfid105}{32875539}{30864498}
\pgfsyspdfmark {pgfid106}{33059564}{30864498}
\pgfsyspdfmark {pgfid107}{33243589}{30864498}
\pgfsyspdfmark {pgfid108}{33427614}{30864498}
\pgfsyspdfmark {pgfid109}{33611639}{30864498}
\pgfsyspdfmark {pgfid110}{33795664}{30864498}
\pgfsyspdfmark {pgfid111}{33979689}{30864498}
\pgfsyspdfmark {pgfid112}{34163714}{30864498}
\@writefile{lof}{\contentsline {figure}{\numberline {\oldstylenums  {12}}{\ignorespaces \oldstylenums  {Both the hydrogen-hydrogen bond and the alkene bond can now bind to Palladium(0) which brings the reactants close to each other. This is how the hydrogen atoms bond to the alkene, resulting in an alkane.}\relax }}{5}{figure.caption.15}}
\pgfsyspdfmark {pgfid114}{16432127}{21172189}
\pgfsyspdfmark {pgfid113}{12486860}{22255008}
\pbs@newkey{pbs@last@page}{6}
\@writefile{toc}{\contentsline {subsection}{\numberline { \oldstylenums  { \oldstylenums  {1} .3} }Preparation}{6}{subsection.1.3}}
\@writefile{toc}{\contentsline {subsubsection}{\numberline { \oldstylenums  { \oldstylenums  { \oldstylenums  {1} .3} .1} }Part 1}{6}{subsubsection.1.3.1}}
\pbs@newkey{pbs@last@page}{7}
\@writefile{toc}{\contentsline {subsubsection}{\numberline { \oldstylenums  { \oldstylenums  { \oldstylenums  {1} .3} .2} }Part 2}{7}{subsubsection.1.3.2}}
\pbs@newkey{pbs@last@page}{8}
\@writefile{toc}{\contentsline {subsubsection}{\numberline { \oldstylenums  { \oldstylenums  { \oldstylenums  {1} .3} .3} }Part 3}{8}{subsubsection.1.3.3}}
\pbs@newkey{pbs@last@page}{9}
\@writefile{toc}{\contentsline {subsubsection}{\numberline { \oldstylenums  { \oldstylenums  { \oldstylenums  {1} .3} .4} }Part 4}{9}{subsubsection.1.3.4}}
\pbs@newkey{pbs@last@page}{10}
\@writefile{toc}{\contentsline {section}{\numberline { \oldstylenums  {2} }Procedure}{10}{section.2}}
\citation{IR_1_lit}
\citation{IR_1_lit}
\pbs@newkey{pbs@last@page}{11}
\@writefile{toc}{\contentsline {section}{\numberline { \oldstylenums  {3} }Characterization}{11}{section.3}}
\@writefile{toc}{\contentsline {subsection}{\numberline { \oldstylenums  { \oldstylenums  {3} .1} }Part 1}{11}{subsection.3.1}}
\@writefile{toc}{\contentsline {subsubsection}{\numberline { \oldstylenums  { \oldstylenums  { \oldstylenums  {3} .1} .1} }Infrared Spectroscopy}{11}{subsubsection.3.1.1}}
\@writefile{lof}{\contentsline {figure}{\numberline {\oldstylenums  {13}}{\ignorespaces \oldstylenums  {IR spectrum of Leah.}\relax }}{11}{figure.caption.21}}
\@writefile{lof}{\contentsline {figure}{\numberline {\oldstylenums  {14}}{\ignorespaces \oldstylenums  {Literature Spectrum \cite  {IR_1_lit}.}\relax }}{11}{figure.caption.22}}
\citation{ups}
\citation{ups}
\citation{ups}
\pbs@newkey{pbs@last@page}{12}
\@writefile{toc}{\contentsline {subsection}{\numberline { \oldstylenums  { \oldstylenums  {3} .2} }Part 2}{12}{subsection.3.2}}
\@writefile{toc}{\contentsline {subsubsection}{\numberline { \oldstylenums  { \oldstylenums  { \oldstylenums  {3} .2} .1} }Infrared Spectroscopy}{12}{subsubsection.3.2.1}}
\@writefile{lof}{\contentsline {figure}{\numberline {\oldstylenums  {15}}{\ignorespaces \oldstylenums  {IR spectrum.}\relax }}{12}{figure.caption.23}}
\pgfsyspdfmark {pgfid115}{27702721}{28950591}
\pgfsyspdfmark {pgfid116}{27702721}{28000320}
\@writefile{toc}{\contentsline {subsubsection}{\numberline { \oldstylenums  { \oldstylenums  { \oldstylenums  {3} .2} .2} }Thin Layer Chromatography}{12}{subsubsection.3.2.2}}
\@writefile{toc}{\contentsline {subsection}{\numberline { \oldstylenums  { \oldstylenums  {3} .3} }Part 3}{12}{subsection.3.3}}
\citation{IR_4_lit}
\citation{IR_4_lit}
\pbs@newkey{pbs@last@page}{13}
\@writefile{toc}{\contentsline {subsection}{\numberline { \oldstylenums  { \oldstylenums  {3} .4} }Part 4}{13}{subsection.3.4}}
\@writefile{toc}{\contentsline {subsubsection}{\numberline { \oldstylenums  { \oldstylenums  { \oldstylenums  {3} .4} .1} }Infrared Spectroscopy}{13}{subsubsection.3.4.1}}
\@writefile{lof}{\contentsline {figure}{\numberline {\oldstylenums  {16}}{\ignorespaces \oldstylenums  {IR spectrum of Asbj\o rn.}\relax }}{13}{figure.caption.26}}
\@writefile{lof}{\contentsline {figure}{\numberline {\oldstylenums  {17}}{\ignorespaces \oldstylenums  {Literature IR spectrum \cite  {IR_4_lit}.}\relax }}{13}{figure.caption.27}}
\@writefile{toc}{\contentsline {subsubsection}{\numberline { \oldstylenums  { \oldstylenums  { \oldstylenums  {3} .4} .2} }Thin Layer Chromatography}{13}{subsubsection.3.4.2}}
\pbs@newkey{pbs@last@page}{14}
\@writefile{toc}{\contentsline {section}{\numberline { \oldstylenums  {4} }Appendix}{14}{section.4}}
\@writefile{toc}{\contentsline {subsection}{\numberline { \oldstylenums  { \oldstylenums  {4} .1} }H Statements}{14}{subsection.4.1}}
\pbs@newkey{pbs@last@page}{15}
\@writefile{toc}{\contentsline {subsection}{\numberline { \oldstylenums  { \oldstylenums  {4} .2} }P Statements}{15}{subsection.4.2}}
\pbs@newkey{pbs@last@page}{16}
\pbs@newkey{pbs@last@page}{17}
\bibstyle{unsrt}
\bibdata{literature}
\bibcite{IR_1_lit}{1}
\bibcite{ups}{2}
\bibcite{IR_4_lit}{3}
\pbs@newkey{pbs@last@page}{18}
\newlabel{LastPage}{{}{18}{}{page.18}{}}
\xdef\lastpage@lastpage{18}
\xdef\lastpage@lastpageHy{18}
\ttl@finishall
